50 Cent
ABBA
AC/DC
Aerosmith
Alice in Chains
Arctic Monkeys
Ariana Grande
Audioslave
Beyoncé
Black Sabbath
Bon Jovi
Bruno Mars
Cardi B
Coldplay
David Bowie
Depeche Mode
Ed Sheeran
Eminem
Fleetwood Mac
Foo Fighters
Green Day
Guns N' Roses
Jay-Z
Journey
Justin Bieber
Kendrick Lamar
KISS
Korn
Lady Gaga
Led Zeppelin
Linkin Park
Metallica
Nirvana
Oasis
Pearl Jam
Pink Floyd
Post Malone
Prince
Queen
Radiohead
Rage Against the Machine
R.E.M.
Slipknot
Soundgarden
Stevie Ray Vaughan
Stone Temple Pilots
Taylor Swift
The Beach Boys
The Beatles
The Black Keys
The Clash
The Cranberries
The Cure
The Doors
The Eagles
The Killers
The Police
The Ramones
The Rolling Stones
The Sex Pistols
The Smiths
The Strokes
The White Stripes
The Who
Tool
Travis Scott
U2
Van Halen
Weezer
