Adam Driver
Adam Sandler
Al Pacino
Angelina Jolie
Benedict Cumberbatch
Bill Murray
Brad Pitt
Brie Larson
Cate Blanchett
Chadwick Boseman
Charlize Theron
Chris Evans
Chris Hemsworth
Chris Pratt
Christian Bale
Clint Eastwood
Daniel Day-Lewis
Denzel Washington
Dustin Hoffman
Dwayne "The Rock" Johnson
Emily Blunt
Emma Stone
Emma Thompson
Gal Gadot
Harrison Ford
Heath Ledger
Hugh Jackman
Ian McKellen
Idris Elba
Jack Nicholson
Jennifer Aniston
Jennifer Lawrence
Jeremy Renner
Jim Carrey
Joaquin Phoenix
Johnny Depp
Judi Dench
Julia Roberts
Kate Winslet
Keanu Reeves
Leonardo DiCaprio
Lupita Nyong'o
Mark Ruffalo
Mark Wahlberg
Meryl Streep
Michelle Pfeiffer
Morgan Freeman
Nicole Kidman
Paul Rudd
Reese Witherspoon
Renee Zellweger
Robert De Niro
Robert Downey Jr.
Russell Crowe
Ryan Gosling
Ryan Reynolds
Sally Field
Samuel L. Jackson
Sandra Bullock
Saoirse Ronan
Scarlett Johansson
Steve Carell
Tilda Swinton
Timothée Chalamet
Tom Cruise
Tom Hanks
Will Ferrell
Will Smith
Zendaya
