[gd_resource type="Theme" load_steps=3 format=3 uid="uid://c2wopckxvdls4"]

[sub_resource type="StyleBoxFlat" id="StyleBoxFlat_6qseu"]
bg_color = Color(0, 0.577795, 1.34766e-06, 1)
border_width_left = 8
border_width_top = 8
border_width_right = 8
border_width_bottom = 8
corner_radius_top_left = 32
corner_radius_top_right = 32
corner_radius_bottom_right = 32
corner_radius_bottom_left = 32

[sub_resource type="StyleBoxFlat" id="StyleBoxFlat_lj2pa"]
bg_color = Color(0, 0.666667, 0, 1)
border_width_left = 8
border_width_top = 8
border_width_right = 8
border_width_bottom = 8
corner_radius_top_left = 32
corner_radius_top_right = 32
corner_radius_bottom_right = 32
corner_radius_bottom_left = 32

[resource]
Button/styles/hover = SubResource("StyleBoxFlat_6qseu")
Button/styles/normal = SubResource("StyleBoxFlat_lj2pa")
