[gd_resource type="Theme" load_steps=3 format=3 uid="uid://bia3wqbrrg4j6"]

[ext_resource type="FontFile" uid="uid://dbd6rbe556xm4" path="res://fonts/manifold.otf" id="1_eqaw5"]

[sub_resource type="StyleBoxFlat" id="StyleBoxFlat_trd6h"]
bg_color = Color(0.835294, 0.407843, 0.105882, 1)
border_width_left = 8
border_width_top = 8
border_width_right = 8
border_width_bottom = 8
corner_radius_top_left = 32
corner_radius_top_right = 32
corner_radius_bottom_right = 32
corner_radius_bottom_left = 32

[resource]
default_font = ExtResource("1_eqaw5")
Button/colors/font_outline_color = Color(0.329412, 0.329412, 0.329412, 1)
Button/fonts/font = ExtResource("1_eqaw5")
Button/styles/hover = SubResource("StyleBoxFlat_trd6h")
Button/styles/normal = SubResource("StyleBoxFlat_trd6h")
Button/styles/pressed = SubResource("StyleBoxFlat_trd6h")
