[gd_resource type="StyleBoxFlat" format=3 uid="uid://ctwdrvaepe1kp"]

[resource]
bg_color = Color(0.0823529, 0.360784, 0.635294, 1)
border_width_left = 8
border_width_top = 8
border_width_right = 8
border_width_bottom = 8
corner_radius_top_left = 32
corner_radius_top_right = 32
corner_radius_bottom_right = 32
corner_radius_bottom_left = 32
