; Engine configuration file.
; It's best edited using the editor UI and not directly,
; since the parameters that go here are not all obvious.
;
; Format:
;   [section] ; section goes between []
;   param=value ; assign values to parameters

config_version=5

[application]

config/name="Hands Up!"
run/main_scene="res://scenes/main.tscn"
config/features=PackedStringArray("4.3", "Mobile")
boot_splash/bg_color=Color(0.0470588, 0.0470588, 0.0470588, 1)
boot_splash/image="res://icon.png"
config/icon="res://icon.png"

[autoload]

Global="*res://scripts/global.gd"
Words="*res://scripts/words.gd"

[display]

window/stretch/mode="viewport"

[rendering]

renderer/rendering_method="mobile"
textures/vram_compression/import_etc2_astc=true
environment/defaults/default_clear_color=Color(0.0509804, 0.0509804, 0.0509804, 1)
